"Symbol","Name","LastSale","MarketCap","ADR TSO","IPOyear","Sector","Industry","Summary Quote",
"AXAS","Abraxas Petroleum Corporation","0.65","109439837.65","n/a","n/a","Energy","Oil & Gas Production","https://www.nasdaq.com/symbol/axas",
"AE","Adams Resources & Energy, Inc.","33.13","139741379.23","n/a","n/a","Energy","Oil Refining/Marketing","https://www.nasdaq.com/symbol/ae",
"ARLP","Alliance Resource Partners, L.P.","16","2054259056","n/a","1999","Energy","Coal Mining","https://www.nasdaq.com/symbol/arlp",
"AMR","Alta Mesa Resources, Inc.","0.1448","55151289.4808","n/a","2017","Energy","Oil & Gas Production","https://www.nasdaq.com/symbol/amr",
"AMRWW","Alta Mesa Resources, Inc.","0.009","0","n/a","2017","Energy","Oil & Gas Production","https://www.nasdaq.com/symbol/amrww",
"AR","Antero Resources Corporation","3.53","1091553631.76","n/a","2013","Energy","Oil & Gas Production","https://www.nasdaq.com/symbol/ar",
"APA","Apache Corporation","21.97","8259818724.69","n/a","n/a","Energy","Oil & Gas Production","https://www.nasdaq.com/symbol/apa",
"AREX","Approach Resources Inc.","0.2249","21072504.3282","n/a","2007","Energy","Oil & Gas Production","https://www.nasdaq.com/symbol/arex",
"ARCH","Arch Coal, Inc.","76.08","1237216383.6","n/a","2016","Energy","Coal Mining","https://www.nasdaq.com/symbol/arch",
"AT","Atlantic Power Corporation","2.32","253765492.96","n/a","n/a","Energy","Electric Utilities: Central","https://www.nasdaq.com/symbol/at",
"BHGE","Baker Hughes, a GE company","23.68","24577837169.28","n/a","2017","Energy","Metal Fabrications","https://www.nasdaq.com/symbol/bhge",
"BLDP","Ballard Power Systems, Inc.","4.55","1058460184.6","n/a","n/a","Energy","Industrial Machinery/Components","https://www.nasdaq.com/symbol/bldp",
"BRN","Barnwell Industries, Inc.","0.93","7697758.8","n/a","n/a","Energy","Oil & Gas Production","https://www.nasdaq.com/symbol/brn",
"BAS","Basic Energy Services, Inc.","1.62","41823041.04","n/a","2005","Energy","Oilfield Services/Equipment","https://www.nasdaq.com/symbol/bas",
"BTE","Baytex Energy Corp","1.38","769930694.34","n/a","n/a","Energy","Oil & Gas Production","https://www.nasdaq.com/symbol/bte",
"BRY","Berry Petroleum Corporation","8.59","703342070.3","n/a","2018","Energy","Oil & Gas Production","https://www.nasdaq.com/symbol/bry",
"BBL","BHP Group Plc","43.44","109838040000","n/a","n/a","Energy","Coal Mining","https://www.nasdaq.com/symbol/bbl",
"BSM","Black Stone Minerals, L.P.","14.49","2984383497.06","n/a","2015","Energy","Oil & Gas Production","https://www.nasdaq.com/symbol/bsm",
"BE","Bloom Energy Corporation","8.56","972111127.04","n/a","2018","Energy","Industrial Machinery/Components","https://www.nasdaq.com/symbol/be",
"BKEP","Blueknight Energy Partners L.P., L.L.C.","1.3","52929314.1","n/a","2011","Energy","Natural Gas Distribution","https://www.nasdaq.com/symbol/bkep",
"BKEPP","Blueknight Energy Partners L.P., L.L.C.","5.45","164364473.55","n/a","n/a","Energy","Natural Gas Distribution","https://www.nasdaq.com/symbol/bkepp",
"BCEI","Bonanza Creek Energy, Inc.","21.67","446931918.18","n/a","2017","Energy","Oil & Gas Production","https://www.nasdaq.com/symbol/bcei",
"BORR","Borr Drilling Limited","6.96","771295722.96","n/a","2019","Energy","Oil & Gas Production","https://www.nasdaq.com/symbol/borr",
"BPMP","BP Midstream Partners LP","14.87","1557774330.06","n/a","2017","Energy","Natural Gas Distribution","https://www.nasdaq.com/symbol/bpmp",
"BP","BP p.l.c.","36.81","125100790776.9","n/a","n/a","Energy","Integrated oil Companies","https://www.nasdaq.com/symbol/bp",
"BPT","BP Prudhoe Bay Royalty Trust","8.93","191102000","n/a","n/a","Energy","Integrated oil Companies","https://www.nasdaq.com/symbol/bpt",
"BGG","Briggs & Stratton Corporation","8.9","374315933","n/a","n/a","Energy","Industrial Machinery/Components","https://www.nasdaq.com/symbol/bgg",
"MNRL","Brigham Minerals, Inc.","19.3","979957500","n/a","2019","Energy","Oil & Gas Production","https://www.nasdaq.com/symbol/mnrl",
"BC","Brunswick Corporation","47.99","4113910932.63","n/a","n/a","Energy","Industrial Machinery/Components","https://www.nasdaq.com/symbol/bc",
"BPL","Buckeye Partners L.P.","40.87","6290767086.69","n/a","1986","Energy","Natural Gas Distribution","https://www.nasdaq.com/symbol/bpl",
"BWXT","BWX Technologies, Inc.","56.82","5408552045.4","n/a","n/a","Energy","Industrial Machinery/Components","https://www.nasdaq.com/symbol/bwxt",
"CJ","C&J Energy Services, Inc","9.42","111323510481.18","n/a","2017","Energy","Oilfield Services/Equipment","https://www.nasdaq.com/symbol/cj",
"COG","Cabot Oil & Gas Corporation","17.37","7267444930.44","n/a","1990","Energy","Oil & Gas Production","https://www.nasdaq.com/symbol/cog",
"WHD","Cactus, Inc.","28.3","2125701437.5","n/a","2018","Energy","Metal Fabrications","https://www.nasdaq.com/symbol/whd",
"CRC","California Resources Corporation","10.15","497394791.95","n/a","2014","Energy","Oil & Gas Production","https://www.nasdaq.com/symbol/crc",
"CPE","Callon Petroleum Company","5.16","1178050528.56","n/a","n/a","Energy","Oil & Gas Production","https://www.nasdaq.com/symbol/cpe",
"CLMT","Calumet Specialty Products Partners, L.P.","4.48","347063364.48","n/a","2006","Energy","Integrated oil Companies","https://www.nasdaq.com/symbol/clmt",
"CEI","Camber Energy, Inc.","0.317","3976131","n/a","n/a","Energy","Oil & Gas Production","https://www.nasdaq.com/symbol/cei",
"CNQ","Canadian Natural Resources Limited","24.39","28987975629.54","n/a","n/a","Energy","Oil & Gas Production","https://www.nasdaq.com/symbol/cnq",
"CPST","Capstone Turbine Corporation","0.6694","48962977.1662","n/a","2000","Energy","Industrial Machinery/Components","https://www.nasdaq.com/symbol/cpst",
"CRZO","Carrizo Oil & Gas, Inc.","10.02","927380358.6","n/a","1997","Energy","Oil & Gas Production","https://www.nasdaq.com/symbol/crzo",
"CVE","Cenovus Energy Inc","8.54","10493195475.56","n/a","n/a","Energy","Oil & Gas Production","https://www.nasdaq.com/symbol/cve",
"CDEV","Centennial Resource Development, Inc.","4.6","1271621856.4","n/a","2016","Energy","Oil & Gas Production","https://www.nasdaq.com/symbol/cdev",
"CHAP","Chaparral Energy, Inc.","2.07","95926329.54","n/a","n/a","Energy","Oil & Gas Production","https://www.nasdaq.com/symbol/chap",
"CHK","Chesapeake Energy Corporation","1.44","2353699041.12","n/a","n/a","Energy","Oil & Gas Production","https://www.nasdaq.com/symbol/chk",
"CHKR","Chesapeake Granite Wash Trust","1","46750000","n/a","2011","Energy","Oil & Gas Production","https://www.nasdaq.com/symbol/chkr",
"CVX","Chevron Corporation","122.42","233199290803.68","n/a","n/a","Energy","Integrated oil Companies","https://www.nasdaq.com/symbol/cvx",
"SNP","China Petroleum & Chemical Corporation","60.12","72788011211.52","n/a","n/a","Energy","Integrated oil Companies","https://www.nasdaq.com/symbol/snp",
"CYD","China Yuchai International Limited","13.93","569155993.63","n/a","1994","Energy","Industrial Machinery/Components","https://www.nasdaq.com/symbol/cyd",
"XEC","Cimarex Energy Co","43.02","4364680527.18","n/a","n/a","Energy","Oil & Gas Production","https://www.nasdaq.com/symbol/xec",
"CKX","CKX Lands, Inc.","9.02","17521304.9","n/a","n/a","Energy","Oil & Gas Production","https://www.nasdaq.com/symbol/ckx",
"CEO","CNOOC Limited","151.35","1576603112.25","n/a","2001","Energy","Oil & Gas Production","https://www.nasdaq.com/symbol/ceo",
"CEIX","CNX Resources Corporation","17.78","484803259.5","n/a","2017","Energy","Coal Mining","https://www.nasdaq.com/symbol/ceix",
"CNX","CNX Resources Corporation","7.07","1326073153.16","n/a","1999","Energy","Oil & Gas Production","https://www.nasdaq.com/symbol/cnx",
"CRK","Comstock Resources, Inc.","5.52","1020022479.12","n/a","n/a","Energy","Oil & Gas Production","https://www.nasdaq.com/symbol/crk",
"CXO","Concho Resources Inc.","71.91","14459577442.83","n/a","2007","Energy","Oil & Gas Production","https://www.nasdaq.com/symbol/cxo",
"COP","ConocoPhillips","54.01","59958747545.95","n/a","n/a","Energy","Integrated oil Companies","https://www.nasdaq.com/symbol/cop",
"CCR","CONSOL Coal Resources LP","12.88","355910026.08","n/a","2015","Energy","Coal Mining","https://www.nasdaq.com/symbol/ccr",
"MCF","Contango Oil & Gas Company","1.15","45846970.65","n/a","n/a","Energy","Oil & Gas Production","https://www.nasdaq.com/symbol/mcf",
"CLR","Continental Resources, Inc.","31.32","11724439923.36","n/a","2007","Energy","Oil & Gas Production","https://www.nasdaq.com/symbol/clr",
"CTRA","Contura Energy, Inc.","30.45","584246372.85","n/a","2018","Energy","Coal Mining","https://www.nasdaq.com/symbol/ctra",
"CLB","Core Laboratories N.V.","39.82","1766530478.9","n/a","1995","Energy","Oilfield Services/Equipment","https://www.nasdaq.com/symbol/clb",
"CPG","Crescent Point Energy Corporation","3.12","1707256146.96","n/a","n/a","Energy","Oil & Gas Production","https://www.nasdaq.com/symbol/cpg",
"CRT","Cross Timbers Royalty Trust","9.885","59310000","n/a","1992","Energy","Oil & Gas Production","https://www.nasdaq.com/symbol/crt",
"CAPL","CrossAmerica Partners LP","16.82","579354067.92","n/a","2012","Energy","Oil Refining/Marketing","https://www.nasdaq.com/symbol/capl",
"CCLP","CSI Compressco LP","3.37","158611944.83","n/a","2011","Energy","Oilfield Services/Equipment","https://www.nasdaq.com/symbol/cclp",
"CMI","Cummins Inc.","149.96","23663688000","n/a","n/a","Energy","Industrial Machinery/Components","https://www.nasdaq.com/symbol/cmi",
"CVI","CVR Energy Inc.","45.45","4569115724.55","n/a","2007","Energy","Integrated oil Companies","https://www.nasdaq.com/symbol/cvi",
"CELP","Cypress Energy Partners, L.P.","6.85","82562412.95","n/a","2014","Energy","Oilfield Services/Equipment","https://www.nasdaq.com/symbol/celp",
"DWSN","Dawson Geophysical Company","2.12","49229908.6","n/a","n/a","Energy","Oil & Gas Production","https://www.nasdaq.com/symbol/dwsn",
"DKL","Delek Logistics Partners, L.P.","31.5","769144477.5","n/a","2012","Energy","Natural Gas Distribution","https://www.nasdaq.com/symbol/dkl",
"DK","Delek US Holdings, Inc.","33.83","2552310980.68","n/a","2017","Energy","Integrated oil Companies","https://www.nasdaq.com/symbol/dk",
"DNR","Denbury Resources Inc.","1.03","475061378.17","n/a","n/a","Energy","Oil & Gas Production","https://www.nasdaq.com/symbol/dnr",
"DVN","Devon Energy Corporation","24.05","9860500000","n/a","n/a","Energy","Oil & Gas Production","https://www.nasdaq.com/symbol/dvn",
"DO","Diamond Offshore Drilling, Inc.","5.91","813773389.83","n/a","1995","Energy","Oil & Gas Production","https://www.nasdaq.com/symbol/do",
"FANG","Diamondback Energy, Inc.","96.42","15807978682.14","n/a","2012","Energy","Oil & Gas Production","https://www.nasdaq.com/symbol/fang",
"DMLP","Dorchester Minerals, L.P.","18.39","637761043.86","n/a","n/a","Energy","Oil & Gas Production","https://www.nasdaq.com/symbol/dmlp",
"DRQ","Dril-Quip, Inc.","47.46","1718386213.32","n/a","1997","Energy","Metal Fabrications","https://www.nasdaq.com/symbol/drq",
"ESTE","Earthstone Energy, Inc.","4.04","260369718","n/a","n/a","Energy","Oil & Gas Production","https://www.nasdaq.com/symbol/este",
"ECT","ECA Marcellus Trust I","1.53","26935650","n/a","2010","Energy","Oil & Gas Production","https://www.nasdaq.com/symbol/ect",
"EC","Ecopetrol S.A.","16.69","34311881710.46","n/a","n/a","Energy","Oil & Gas Production","https://www.nasdaq.com/symbol/ec",
"EMR","Emerson Electric Company","59.48","36581781156.84","n/a","n/a","Energy","Consumer Electronics/Appliances","https://www.nasdaq.com/symbol/emr",
"ENB","Enbridge Inc","33.81","68425013631.87","n/a","n/a","Energy","Natural Gas Distribution","https://www.nasdaq.com/symbol/enb",
"ENBA","Enbridge Inc","26.94","0","n/a","2018","Energy","Natural Gas Distribution","https://www.nasdaq.com/symbol/enba",
"ECA","Encana Corporation","4.31","6229939194.3","n/a","n/a","Energy","Oil & Gas Production","https://www.nasdaq.com/symbol/eca",
"ERF","Enerplus Corporation","6.43","1490260569.01","n/a","n/a","Energy","Oil & Gas Production","https://www.nasdaq.com/symbol/erf",
"E","ENI S.p.A.","29.49","53586062690.85","n/a","n/a","Energy","Oil & Gas Production","https://www.nasdaq.com/symbol/e",
"ENSV","ENSERVCO Corporation","0.37","20094636.73","n/a","n/a","Energy","Oilfield Services/Equipment","https://www.nasdaq.com/symbol/ensv",
"EOG","EOG Resources, Inc.","79.37","46087227151.57","n/a","n/a","Energy","Oil & Gas Production","https://www.nasdaq.com/symbol/eog",
"EPSN","Epsilon Energy Ltd.","3.27","89549384.91","n/a","n/a","Energy","Oil & Gas Production","https://www.nasdaq.com/symbol/epsn",
"EQT","EQT Corporation","12.09","3088982039.52","n/a","n/a","Energy","Oil & Gas Production","https://www.nasdaq.com/symbol/eqt",
"EQNR","Equinor ASA","16.87","56178360475.79","n/a","n/a","Energy","Integrated oil Companies","https://www.nasdaq.com/symbol/eqnr",
"EPM","Evolution Petroleum Corporation, Inc.","6.13","203434256.45","n/a","n/a","Energy","Oil & Gas Production","https://www.nasdaq.com/symbol/epm",
"XOG","Extraction Oil & Gas, Inc.","4.07","560610420.26","n/a","2016","Energy","Oil & Gas Production","https://www.nasdaq.com/symbol/xog",
"XOM","Exxon Mobil Corporation","70.84","299873155508.08","n/a","n/a","Energy","Integrated oil Companies","https://www.nasdaq.com/symbol/xom",
"FLMN","Falcon Minerals Corporation","6.1","523691100","n/a","2017","Energy","Oil & Gas Production","https://www.nasdaq.com/symbol/flmn",
"FLMNW","Falcon Minerals Corporation","0.6","0","n/a","2017","Energy","Oil & Gas Production","https://www.nasdaq.com/symbol/flmnw",
"FELP","Foresight Energy LP","0.4588","66936126.8256","n/a","2014","Energy","Coal Mining","https://www.nasdaq.com/symbol/felp",
"FET","Forum Energy Technologies, Inc.","1.68","185429338.08","n/a","2012","Energy","Metal Fabrications","https://www.nasdaq.com/symbol/fet",
"FI","Frank&#39;s International N.V.","4.71","1061359468.23","n/a","2013","Energy","Oilfield Services/Equipment","https://www.nasdaq.com/symbol/fi",
"FTSI","FTS International, Inc.","2.87","312923940.84","n/a","2018","Energy","Oilfield Services/Equipment","https://www.nasdaq.com/symbol/ftsi",
"GE","General Electric Company","9.15","79852708800","n/a","n/a","Energy","Consumer Electronics/Appliances","https://www.nasdaq.com/symbol/ge",
"GEL","Genesis Energy, L.P.","20.2","2476100203.6","n/a","1996","Energy","Oil Refining/Marketing","https://www.nasdaq.com/symbol/gel",
"GPRK","Geopark Ltd","17.04","1044811842.96","n/a","2014","Energy","Oil & Gas Production","https://www.nasdaq.com/symbol/gprk",
"GLP","Global Partners LP","19.69","664614684.8","n/a","2005","Energy","Oil Refining/Marketing","https://www.nasdaq.com/symbol/glp",
"GDP","Goodrich Petroleum Corporation","10.74","132137635.32","n/a","2017","Energy","Oil & Gas Production","https://www.nasdaq.com/symbol/gdp",
"EAF","GrafTech International Ltd.","10.88","3161049218.56","n/a","2018","Energy","Industrial Machinery/Components","https://www.nasdaq.com/symbol/eaf",
"GTE","Gran Tierra Energy Inc.","1.47","560032819.29","n/a","n/a","Energy","Oil & Gas Production","https://www.nasdaq.com/symbol/gte",
"GPOR","Gulfport Energy Corporation","3.28","522818935.76","n/a","n/a","Energy","Oil & Gas Production","https://www.nasdaq.com/symbol/gpor",
"HNRG","Hallador Energy Company","4.95","149732317.35","n/a","n/a","Energy","Coal Mining","https://www.nasdaq.com/symbol/hnrg",
"HAL","Halliburton Company","19.52","17098197734.72","n/a","n/a","Energy","Oilfield Services/Equipment","https://www.nasdaq.com/symbol/hal",
"HLX","Helix Energy Solutions Group, Inc.","7.41","1102365744.87","n/a","n/a","Energy","Oilfield Services/Equipment","https://www.nasdaq.com/symbol/hlx",
"HP","Helmerich & Payne, Inc.","42.71","4673913241.58","n/a","n/a","Energy","Oil & Gas Production","https://www.nasdaq.com/symbol/hp",
"HES","Hess Corporation","60.62","18457613365.8","n/a","n/a","Energy","Integrated oil Companies","https://www.nasdaq.com/symbol/hes",
"HESM","Hess Midstream Partners LP","18.13","990350579.19","n/a","2017","Energy","Oil & Gas Production","https://www.nasdaq.com/symbol/hesm",
"HPR","HighPoint Resources Corporation","1.19","254524000.85","n/a","2018","Energy","Oil & Gas Production","https://www.nasdaq.com/symbol/hpr",
"HEP","Holly Energy Partners, L.P.","27.42","2891170311.42","n/a","2004","Energy","Natural Gas Distribution","https://www.nasdaq.com/symbol/hep",
"HFC","HollyFrontier Corporation","48.56","7991915789.52","n/a","n/a","Energy","Integrated oil Companies","https://www.nasdaq.com/symbol/hfc",
"HOLI","Hollysys Automation Technologies, Ltd.","16.03","967283846.97","n/a","n/a","Energy","Industrial Machinery/Components","https://www.nasdaq.com/symbol/holi",
"HUSA","Houston American Energy Corporation","0.21","13130279.4","n/a","n/a","Energy","Oil & Gas Production","https://www.nasdaq.com/symbol/husa",
"IPWR","Ideal Power Inc.","0.305","4490466.2","n/a","2013","Energy","Industrial Machinery/Components","https://www.nasdaq.com/symbol/ipwr",
"IMO","Imperial Oil Limited","24.96","19038829530.24","n/a","n/a","Energy","Integrated oil Companies","https://www.nasdaq.com/symbol/imo",
"ICD","Independence Contract Drilling, Inc.","1.13","86952007.27","n/a","2014","Energy","Oil & Gas Production","https://www.nasdaq.com/symbol/icd",
"IO","Ion Geophysical Corporation","7.74","109736257.14","n/a","n/a","Energy","Oil & Gas Production","https://www.nasdaq.com/symbol/io",
"ISRL","Isramco, Inc.","119.61","325057877.28","n/a","1983","Energy","Oil & Gas Production","https://www.nasdaq.com/symbol/isrl",
"JAG","Jagged Peak Energy Inc.","6.8","1450744830.4","n/a","2017","Energy","Oil & Gas Production","https://www.nasdaq.com/symbol/jag",
"FRAC","Keane Group, Inc.","5.32","558513821.32","n/a","2017","Energy","Oilfield Services/Equipment","https://www.nasdaq.com/symbol/frac",
"KEG","Key Energy Services, Inc.","1.73","35283886.3","n/a","2016","Energy","Oilfield Services/Equipment","https://www.nasdaq.com/symbol/keg",
"KRP","Kimbell Royalty Partners","14.57","683474984.65","n/a","2017","Energy","Oil & Gas Production","https://www.nasdaq.com/symbol/krp",
"KLXE","KLX Energy Services Holdings, Inc. ","11.64","269454872.16","n/a","n/a","Energy","Oilfield Services/Equipment","https://www.nasdaq.com/symbol/klxe",
"PHG","Koninklijke Philips N.V.","46.37","41977605320.49","n/a","n/a","Energy","Consumer Electronics/Appliances","https://www.nasdaq.com/symbol/phg",
"KOS","Kosmos Energy Ltd.","6.21","2493057632.76","n/a","2011","Energy","Oil & Gas Production","https://www.nasdaq.com/symbol/kos",
"LPI","Laredo Petroleum, Inc.","2.69","638793258.97","n/a","2011","Energy","Oil & Gas Production","https://www.nasdaq.com/symbol/lpi",
"LBRT","Liberty Oilfield Services Inc.","12","1350287916","n/a","2018","Energy","Oilfield Services/Equipment","https://www.nasdaq.com/symbol/lbrt",
"LLEX","Lilis Energy, Inc.","0.3328","30517732.0448","n/a","n/a","Energy","Oil & Gas Production","https://www.nasdaq.com/symbol/llex",
"LONE","Lonestar Resources US Inc.","2.77","69332584.78","n/a","n/a","Energy","Oil & Gas Production","https://www.nasdaq.com/symbol/lone",
"MIC","Macquarie Infrastructure Corporation ","38.09","3285664273.32","n/a","2004","Energy","Oil Refining/Marketing","https://www.nasdaq.com/symbol/mic",
"MMP","Magellan Midstream Partners L.P.","64.76","14791405997.28","n/a","n/a","Energy","Natural Gas Distribution","https://www.nasdaq.com/symbol/mmp",
"MGY","Magnolia Oil & Gas Corporation","10.09","2621576555.38","n/a","2017","Energy","Oil & Gas Production","https://www.nasdaq.com/symbol/mgy",
"TUSK","Mammoth Energy Services, Inc.","4.21","189470186.95","n/a","2016","Energy","Oilfield Services/Equipment","https://www.nasdaq.com/symbol/tusk",
"MRO","Marathon Oil Corporation","12.87","10526580863.37","n/a","n/a","Energy","Oil & Gas Production","https://www.nasdaq.com/symbol/mro",
"MPC","Marathon Petroleum Corporation","48.39","31856072088.36","n/a","n/a","Energy","Integrated oil Companies","https://www.nasdaq.com/symbol/mpc",
"MARPS","Marine Petroleum Trust","2.1999","4399800","n/a","n/a","Energy","Oil & Gas Production","https://www.nasdaq.com/symbol/marps",
"MMLP","Martin Midstream Partners L.P.","4.53","176051152.17","n/a","2002","Energy","Oil Refining/Marketing","https://www.nasdaq.com/symbol/mmlp",
"MTDR","Matador Resources Company","15.35","1790524174.1","n/a","2012","Energy","Oil & Gas Production","https://www.nasdaq.com/symbol/mtdr",
"MTR","Mesa Royalty Trust","7.55","14070104.5","n/a","n/a","Energy","Oil & Gas Production","https://www.nasdaq.com/symbol/mtr",
"MXC","Mexco Energy Corporation","4.1","8364680.6","n/a","n/a","Energy","Oil & Gas Production","https://www.nasdaq.com/symbol/mxc",
"MGEE","MGE Energy Inc.","74.47","2581753513.9","n/a","n/a","Energy","Electric Utilities: Central","https://www.nasdaq.com/symbol/mgee",
"MCEP","Mid-Con Energy Partners, LP","0.4479","13789030.5882","n/a","2011","Energy","Oil & Gas Production","https://www.nasdaq.com/symbol/mcep",
"AMPY","MIDSTATES PETROLEUM COMPANY, INC.","5.66","235540928.3","n/a","2016","Energy","Oil & Gas Production","https://www.nasdaq.com/symbol/ampy",
"MR","Montage Resources Corporation","3.36","119909015.52","n/a","2014","Energy","Oil & Gas Production","https://www.nasdaq.com/symbol/mr",
"MPLX","MPLX LP","27.36","28924670656.8","n/a","2012","Energy","Natural Gas Distribution","https://www.nasdaq.com/symbol/mplx",
"MUR","Murphy Oil Corporation","20.36","3535045679.28","n/a","n/a","Energy","Oil & Gas Production","https://www.nasdaq.com/symbol/mur",
"MVO","MV Oil Trust","7.23","83145000","n/a","2007","Energy","Oil & Gas Production","https://www.nasdaq.com/symbol/mvo",
"NBR","Nabors Industries Ltd.","2.27","825049433","n/a","n/a","Energy","Oil & Gas Production","https://www.nasdaq.com/symbol/nbr",
"NESR","National Energy Services Reunited Corp.","8.09","702994942.11","n/a","2017","Energy","Oilfield Services/Equipment","https://www.nasdaq.com/symbol/nesr",
"NESRW","National Energy Services Reunited Corp.","0.77","0","n/a","2017","Energy","Oilfield Services/Equipment","https://www.nasdaq.com/symbol/nesrw",
"NOV","National Oilwell Varco, Inc.","20.08","7748800214","n/a","n/a","Energy","Metal Fabrications","https://www.nasdaq.com/symbol/nov",
"NGS","Natural Gas Services Group, Inc.","12.43","164387707.11","n/a","2002","Energy","Oilfield Services/Equipment","https://www.nasdaq.com/symbol/ngs",
"NRP","Natural Resource Partners LP","28.04","343804019.96","n/a","2002","Energy","Coal Mining","https://www.nasdaq.com/symbol/nrp",
"NCSM","NCS Multistage Holdings, Inc.","2.28","106670050.8","n/a","2017","Energy","Oilfield Services/Equipment","https://www.nasdaq.com/symbol/ncsm",
"GBR","New Concept Energy, Inc","1.4065","7218065.171","n/a","n/a","Energy","Oil & Gas Production","https://www.nasdaq.com/symbol/gbr",
"NR","Newpark Resources, Inc.","7.24","652049509.88","n/a","n/a","Energy","Metal Fabrications","https://www.nasdaq.com/symbol/nr",
"NGL","NGL ENERGY PARTNERS LP","13.75","1732044435","n/a","2011","Energy","Oil Refining/Marketing","https://www.nasdaq.com/symbol/ngl",
"NINE","Nine Energy Service, Inc.","9.83","301853545.4","n/a","2018","Energy","Oilfield Services/Equipment","https://www.nasdaq.com/symbol/nine",
"NE","Noble Corporation","1.51","376265565.94","n/a","n/a","Energy","Oil & Gas Production","https://www.nasdaq.com/symbol/ne",
"NBL","Noble Energy Inc.","22.16","10598089161.36","n/a","n/a","Energy","Oil & Gas Production","https://www.nasdaq.com/symbol/nbl",
"NBLX","Noble Midstream Partners LP","27.04","1074899163.52","n/a","2016","Energy","Natural Gas Distribution","https://www.nasdaq.com/symbol/nblx",
"NOA","North American Construction Group Ltd.","12.17","331695358.05","n/a","2006","Energy","Oilfield Services/Equipment","https://www.nasdaq.com/symbol/noa",
"NRT","North European Oil Royality Trust","7.5","68929425","n/a","n/a","Energy","Oil & Gas Production","https://www.nasdaq.com/symbol/nrt",
"NOG","Northern Oil and Gas, Inc.","1.7","677543212.7","n/a","n/a","Energy","Oil & Gas Production","https://www.nasdaq.com/symbol/nog",
"DNOW","NOW Inc.","11.87","1291419167.39","n/a","2014","Energy","Metal Fabrications","https://www.nasdaq.com/symbol/dnow",
"NS","Nustar Energy L.P.","26.83","2891281424.15","n/a","n/a","Energy","Natural Gas Distribution","https://www.nasdaq.com/symbol/ns",
"NES","Nuverra Environmental Solutions, Inc.","4.37","68647884.26","n/a","2017","Energy","Oilfield Services/Equipment","https://www.nasdaq.com/symbol/nes",
"OMP","Oasis Midstream Partners LP","17.17","580263515.32","n/a","2017","Energy","Oil & Gas Production","https://www.nasdaq.com/symbol/omp",
"OAS","Oasis Petroleum Inc.","2.85","917398715.1","n/a","2010","Energy","Oil & Gas Production","https://www.nasdaq.com/symbol/oas",
"OBE","Obsidian Energy Ltd.","1.16","84660832.16","n/a","n/a","Energy","Oil & Gas Production","https://www.nasdaq.com/symbol/obe",
"OXY","Occidental Petroleum Corporation","47.13","35269666831.59","n/a","n/a","Energy","Oil & Gas Production","https://www.nasdaq.com/symbol/oxy",
"OII","Oceaneering International, Inc.","12.35","1221779362.05","n/a","n/a","Energy","Oilfield Services/Equipment","https://www.nasdaq.com/symbol/oii",
"OIS","Oil States International, Inc.","13.51","817459702.5","n/a","2001","Energy","Metal Fabrications","https://www.nasdaq.com/symbol/ois",
"ROYT","Pacific Coast Oil Trust","2.11","81410463.38","n/a","2012","Energy","Oil & Gas Production","https://www.nasdaq.com/symbol/royt",
"PACD","Pacific Drilling S.A.","5.04","378115920","n/a","2018","Energy","Oil & Gas Production","https://www.nasdaq.com/symbol/pacd",
"PHX","Panhandle Royalty Company","11.49","190369089.09","n/a","n/a","Energy","Oil & Gas Production","https://www.nasdaq.com/symbol/phx",
"PARR","Par Pacific Holdings, Inc.","21.98","1089115022.52","n/a","n/a","Energy","Oil & Gas Production","https://www.nasdaq.com/symbol/parr",
"PKD","Parker Drilling Company","11.56","173917182.84","n/a","2019","Energy","Oil & Gas Production","https://www.nasdaq.com/symbol/pkd",
"PE","Parsley Energy, Inc.","16.42","5199476183.72","n/a","2014","Energy","Oil & Gas Production","https://www.nasdaq.com/symbol/pe",
"PTEN","Patterson-UTI Energy, Inc.","9.17","1857904777.82","n/a","1993","Energy","Oil & Gas Production","https://www.nasdaq.com/symbol/pten",
"PBF","PBF Energy Inc.","22.91","2746782101.51","n/a","2012","Energy","Integrated oil Companies","https://www.nasdaq.com/symbol/pbf",
"PBFX","PBF Logistics LP","20.39","1266401327.38","n/a","2014","Energy","Natural Gas Distribution","https://www.nasdaq.com/symbol/pbfx",
"PDCE","PDC Energy, Inc.","28.41","1883090086.5","n/a","n/a","Energy","Oil & Gas Production","https://www.nasdaq.com/symbol/pdce",
"BTU","Peabody Energy Corporation","18.13","1885520000","n/a","2017","Energy","Coal Mining","https://www.nasdaq.com/symbol/btu",
"PED","Pedevco Corp.","1.19","64054207.35","n/a","n/a","Energy","Oil & Gas Production","https://www.nasdaq.com/symbol/ped",
"PBA","Pembina Pipeline Corp.","36.91","18863809660.41","n/a","n/a","Energy","Oil & Gas Production","https://www.nasdaq.com/symbol/pba",
"PVAC","Penn Virginia Corporation","31.52","476180992.8","n/a","n/a","Energy","Oil & Gas Production","https://www.nasdaq.com/symbol/pvac",
"PBT","Permian Basin Royalty Trust","4.96","231179628.16","n/a","n/a","Energy","Oil & Gas Production","https://www.nasdaq.com/symbol/pbt",
"PVL","Permianville Royalty Trust","2.34","77220000","n/a","2011","Energy","Oil & Gas Production","https://www.nasdaq.com/symbol/pvl",
"PRT","PermRock Royalty Trust","7.54","91729619.28","n/a","2018","Energy","Oil & Gas Production","https://www.nasdaq.com/symbol/prt",
"PTR","PetroChina Company Limited","49.79","91126144846.62","n/a","n/a","Energy","Oil & Gas Production","https://www.nasdaq.com/symbol/ptr",
"PBR","Petroleo Brasileiro S.A.- Petrobras","14.51","94635680141.3","n/a","n/a","Energy","Oil & Gas Production","https://www.nasdaq.com/symbol/pbr",
"PSX","Phillips 66","100.44","45051528046.68","n/a","n/a","Energy","Integrated oil Companies","https://www.nasdaq.com/symbol/psx",
"PSXP","Phillips 66 Partners LP","51.25","11579344178.75","n/a","2013","Energy","Natural Gas Distribution","https://www.nasdaq.com/symbol/psxp",
"PES","Pioneer Energy Services Corp.","0.1789","14169276.4424","n/a","n/a","Energy","Oil & Gas Production","https://www.nasdaq.com/symbol/pes",
"PXD","Pioneer Natural Resources Company","126.17","21250022771.12","n/a","n/a","Energy","Oil & Gas Production","https://www.nasdaq.com/symbol/pxd",
"PAA","Plains All American Pipeline, L.P.","21.82","15859237776.66","n/a","1998","Energy","Natural Gas Distribution","https://www.nasdaq.com/symbol/paa",
"PAGP","Plains Group Holdings, L.P.","22.07","3519846927.16","n/a","2013","Energy","Natural Gas Distribution","https://www.nasdaq.com/symbol/pagp",
"PLUG","Plug Power, Inc.","2.09","512916697.92","n/a","1999","Energy","Industrial Machinery/Components","https://www.nasdaq.com/symbol/plug",
"PDS","Precision Drilling Corporation","1.37","402481115.32","n/a","n/a","Energy","Oil & Gas Production","https://www.nasdaq.com/symbol/pds",
"PNRG","PrimeEnergy Resources Corporation","116.81","236674347.88","n/a","n/a","Energy","Oil & Gas Production","https://www.nasdaq.com/symbol/pnrg",
"PFIE","Profire Energy, Inc.","1.21","57265396.54","n/a","n/a","Energy","Metal Fabrications","https://www.nasdaq.com/symbol/pfie",
"PUMP","ProPetro Holding Corp.","12.75","1280352475.5","n/a","2017","Energy","Oilfield Services/Equipment","https://www.nasdaq.com/symbol/pump",
"QEP","QEP Resources, Inc.","4.18","995029471.04","n/a","n/a","Energy","Oil & Gas Production","https://www.nasdaq.com/symbol/qep",
"QES","Quintana Energy Services Inc.","1.59","53776272.45","n/a","2018","Energy","Oilfield Services/Equipment","https://www.nasdaq.com/symbol/qes",
"METC","Ramaco Resources, Inc.","3.59","146588556.53","n/a","2017","Energy","Coal Mining","https://www.nasdaq.com/symbol/metc",
"RRC","Range Resources Corporation","4.34","1090982299.4","n/a","n/a","Energy","Oil & Gas Production","https://www.nasdaq.com/symbol/rrc",
"RNGR","Ranger Energy Services, Inc.","6.08","94745734.4","n/a","2017","Energy","Oilfield Services/Equipment","https://www.nasdaq.com/symbol/rngr",
"RCON","Recon Technology, Ltd.","0.6799","14237536.3767","n/a","2009","Energy","Oilfield Services/Equipment","https://www.nasdaq.com/symbol/rcon",
"REI","Ring Energy, Inc.","2.08","141046278.88","n/a","n/a","Energy","Oil & Gas Production","https://www.nasdaq.com/symbol/rei",
"ROAN","Roan Resources, Inc.","1.12","172552718.24","n/a","2018","Energy","Oil & Gas Production","https://www.nasdaq.com/symbol/roan",
"ROSE","Rosehill Resources Inc.","1.84","81334769.36","n/a","2016","Energy","Oil & Gas Production","https://www.nasdaq.com/symbol/rose",
"ROSEU","Rosehill Resources Inc.","2.2","0","n/a","2016","Energy","Oil & Gas Production","https://www.nasdaq.com/symbol/roseu",
"ROSEW","Rosehill Resources Inc.","0.2193","0","n/a","2016","Energy","Oil & Gas Production","https://www.nasdaq.com/symbol/rosew",
"RES","RPC, Inc.","5.75","1233828761.25","n/a","n/a","Energy","Oilfield Services/Equipment","https://www.nasdaq.com/symbol/res",
"SBR","Sabine Royalty Trust","43.92","640324832.4","n/a","n/a","Energy","Oil & Gas Production","https://www.nasdaq.com/symbol/sbr",
"SAEX","SAExploration Holdings, Inc.","3.16","13558602.52","n/a","n/a","Energy","Oil & Gas Production","https://www.nasdaq.com/symbol/saex",
"SJT","San Juan Basin Royalty Trust","3.08","143555091.68","n/a","n/a","Energy","Oil & Gas Production","https://www.nasdaq.com/symbol/sjt",
"SNMP","Sanchez Midstream Partners LP","0.5311","9719563.9087","n/a","n/a","Energy","Oil & Gas Production","https://www.nasdaq.com/symbol/snmp",
"SD","SandRidge Energy, Inc.","5.48","195561636.4","n/a","2016","Energy","Oil & Gas Production","https://www.nasdaq.com/symbol/sd",
"SDT","SandRidge Mississippian Trust I","0.5411","15150800","n/a","2011","Energy","Oil & Gas Production","https://www.nasdaq.com/symbol/sdt",
"SDR","SandRidge Mississippian Trust II","0.5404","26871390","n/a","2012","Energy","Oil & Gas Production","https://www.nasdaq.com/symbol/sdr",
"PER","SandRidge Permian Trust","1.7123","89895750","n/a","2011","Energy","Oil & Gas Production","https://www.nasdaq.com/symbol/per",
"SSL","Sasol Ltd.","19.19","12107689991.73","n/a","n/a","Energy","Oil & Gas Production","https://www.nasdaq.com/symbol/ssl",
"SLB","Schlumberger N.V.","34.53","47755165170.69","n/a","n/a","Energy","Oilfield Services/Equipment","https://www.nasdaq.com/symbol/slb",
"SDRL","Seadrill Limited","2.53","253000000","n/a","2018","Energy","Oil & Gas Production","https://www.nasdaq.com/symbol/sdrl",
"SDLP","Seadrill Partners LLC","1.8747","14112413.5275","n/a","2012","Energy","Oil & Gas Production","https://www.nasdaq.com/symbol/sdlp",
"WTTR","Select Energy Services, Inc.","8.47","897873428.76","n/a","2017","Energy","Oilfield Services/Equipment","https://www.nasdaq.com/symbol/wttr",
"SEMG","Semgroup Corporation","9.8","779546007.8","n/a","n/a","Energy","Oilfield Services/Equipment","https://www.nasdaq.com/symbol/semg",
"SHLX","Shell Midstream Partners, L.P.","20.05","4677455216.85","n/a","2014","Energy","Natural Gas Distribution","https://www.nasdaq.com/symbol/shlx",
"SBOW","SilverBow Resorces, Inc.","8.66","101695756.94","n/a","n/a","Energy","Oil & Gas Production","https://www.nasdaq.com/symbol/sbow",
"SM","SM Energy Company","10.39","1172585923.57","n/a","n/a","Energy","Oil & Gas Production","https://www.nasdaq.com/symbol/sm",
"SOI","Solaris Oilfield Infrastructure, Inc.","13.86","659447462.52","n/a","2017","Energy","Metal Fabrications","https://www.nasdaq.com/symbol/soi",
"SWN","Southwestern Energy Company","1.9","1028501861.1","n/a","n/a","Energy","Oil & Gas Production","https://www.nasdaq.com/symbol/swn",
"SRLP","Sprague Resources LP","17.31","393525141.87","n/a","2013","Energy","Oil Refining/Marketing","https://www.nasdaq.com/symbol/srlp",
"SRCI","SRC Energy Inc.","4.4","1071283360.4","n/a","n/a","Energy","Oil & Gas Production","https://www.nasdaq.com/symbol/srci",
"SLNG","Stabilis Energy, Inc.","4.28","62684524.76","n/a","n/a","Energy","Industrial Machinery/Components","https://www.nasdaq.com/symbol/slng",
"SU","Suncor Energy  Inc.","28.62","44684019257.94","n/a","n/a","Energy","Integrated oil Companies","https://www.nasdaq.com/symbol/su",
"SNDE","Sundance Energy Australia Limited","1.28","3186905.6","2489770","n/a","Energy","Oil & Gas Production","https://www.nasdaq.com/symbol/snde",
"SUN","Sunoco LP","30.63","2534601471.81","n/a","2012","Energy","Integrated oil Companies","https://www.nasdaq.com/symbol/sun",
"SDPI","Superior Drilling Products, Inc.","0.896","22431147.648","n/a","2014","Energy","Metal Fabrications","https://www.nasdaq.com/symbol/sdpi",
"SPN","Superior Energy Services, Inc.","0.64","100206822.4","n/a","n/a","Energy","Oilfield Services/Equipment","https://www.nasdaq.com/symbol/spn",
"TALO","Talos Energy, Inc.","19.93","1079325193.65","n/a","2018","Energy","Oil & Gas Production","https://www.nasdaq.com/symbol/talo",
"FTI","TechnipFMC plc","24.5","10938802948.5","n/a","n/a","Energy","Metal Fabrications","https://www.nasdaq.com/symbol/fti",
"TELL","Tellurian Inc.","5.23","1396410000","n/a","n/a","Energy","Oil & Gas Production","https://www.nasdaq.com/symbol/tell",
"TGC","Tengasco, Inc.","0.6945","7395496.4535","n/a","n/a","Energy","Oil & Gas Production","https://www.nasdaq.com/symbol/tgc",
"TTI","Tetra Technologies, Inc.","1.71","214791861.96","n/a","n/a","Energy","Oil & Gas Production","https://www.nasdaq.com/symbol/tti",
"TPL","Texas Pacific Land Trust","680.15","5275349503.4","n/a","n/a","Energy","Oil & Gas Production","https://www.nasdaq.com/symbol/tpl",
"THR","Thermon Group Holdings, Inc.","22.04","719302905.92","n/a","2011","Energy","Industrial Machinery/Components","https://www.nasdaq.com/symbol/thr",
"TRCH","Torchlight Energy Resources, Inc.","1.4","100805049.8","n/a","n/a","Energy","Oil & Gas Production","https://www.nasdaq.com/symbol/trch",
"TOT","Total S.A.","48.79","126921428023.95","n/a","n/a","Energy","Oil & Gas Production","https://www.nasdaq.com/symbol/tot",
"TPIC","TPI Composites, Inc.","19.74","691199001.78","n/a","2016","Energy","Industrial Machinery/Components","https://www.nasdaq.com/symbol/tpic",
"TAT","Transatlantic Petroleum Ltd","0.74","38847532.84","n/a","n/a","Energy","Oil & Gas Production","https://www.nasdaq.com/symbol/tat",
"TGA","TransGlobe Energy Corporation","1.43","103735161.53","n/a","n/a","Energy","Oil & Gas Production","https://www.nasdaq.com/symbol/tga",
"RIG","Transocean Ltd.","4.33","2649108916.85","n/a","n/a","Energy","Oil & Gas Production","https://www.nasdaq.com/symbol/rig",
"TREC","Trecora Resources","9.19","226871967.7","n/a","n/a","Energy","Integrated oil Companies","https://www.nasdaq.com/symbol/trec",
"USEG","U.S. Energy Corp.","0.4479","6027147.9861","n/a","n/a","Energy","Oil & Gas Production","https://www.nasdaq.com/symbol/useg",
"USWS","U.S. Well Services, Inc.","2.56","175060126.72","n/a","2017","Energy","Oilfield Services/Equipment","https://www.nasdaq.com/symbol/usws",
"USWSW","U.S. Well Services, Inc.","0.34","0","n/a","2017","Energy","Oilfield Services/Equipment","https://www.nasdaq.com/symbol/uswsw",
"UNT","Unit Corporation","4.14","229922832.24","n/a","n/a","Energy","Oil & Gas Production","https://www.nasdaq.com/symbol/unt",
"EGY","VAALCO Energy, Inc. ","1.76","105241767.84","n/a","n/a","Energy","Oil & Gas Production","https://www.nasdaq.com/symbol/egy",
"VAL","Valaris plc","4.44","878552372.64","n/a","n/a","Energy","Oil & Gas Production","https://www.nasdaq.com/symbol/val",
"VLO","Valero Energy Corporation","78.85","32675711244","n/a","n/a","Energy","Integrated oil Companies","https://www.nasdaq.com/symbol/vlo",
"VET","Vermilion Energy Inc.","15.58","2413281471.7","n/a","n/a","Energy","Oil & Gas Production","https://www.nasdaq.com/symbol/vet",
"VTNR","Vertex Energy, Inc","1.29","51949565.49","n/a","n/a","Energy","Integrated oil Companies","https://www.nasdaq.com/symbol/vtnr",
"VNOM","Viper Energy Partners LP","30.21","4079858083.2","n/a","2014","Energy","Oil & Gas Production","https://www.nasdaq.com/symbol/vnom",
"VIST","Vista Oil & Gas, S.A.B. de C.V.","8.7","660411057.9","n/a","2019","Energy","Oil & Gas Production","https://www.nasdaq.com/symbol/vist",
"VOC","VOC Energy Trust","4.77","81090000","n/a","2011","Energy","Oil & Gas Production","https://www.nasdaq.com/symbol/voc",
"WTI","W&T Offshore, Inc.","4.63","651396519.59","n/a","2005","Energy","Oil & Gas Production","https://www.nasdaq.com/symbol/wti",
"HCC","Warrior Met Coal, Inc.","20.35","1049468018.5","n/a","2017","Energy","Coal Mining","https://www.nasdaq.com/symbol/hcc",
"WPRT","Westport Fuel Systems Inc","3.25","433487921.75","n/a","n/a","Energy","Industrial Machinery/Components","https://www.nasdaq.com/symbol/wprt",
"WLL","Whiting Petroleum Corporation","9.35","853642181.15","n/a","2003","Energy","Oil & Gas Production","https://www.nasdaq.com/symbol/wll",
"WWD","Woodward, Inc.","108.22","6722253906.76","n/a","n/a","Energy","Industrial Machinery/Components","https://www.nasdaq.com/symbol/wwd",
"INT","World Fuel Services Corporation","37.66","2462281261.86","n/a","n/a","Energy","Oil Refining/Marketing","https://www.nasdaq.com/symbol/int",
"WPX","WPX Energy, Inc.","10.28","4342221648.56","n/a","2011","Energy","Oil & Gas Production","https://www.nasdaq.com/symbol/wpx",
"YPF","YPF Sociedad Anonima","16.68","6560457387.24","n/a","1993","Energy","Integrated oil Companies","https://www.nasdaq.com/symbol/ypf",
"YUMA","Yuma Energy, Inc.","1.42","2196277.08","n/a","n/a","Energy","Oil & Gas Production","https://www.nasdaq.com/symbol/yuma",
"ZN","Zion Oil ","0.346","25251876.838","n/a","n/a","Energy","Oil & Gas Production","https://www.nasdaq.com/symbol/zn",
"ZNWAA","Zion Oil ","n/a","0","n/a","n/a","Energy","Oil & Gas Production","https://www.nasdaq.com/symbol/znwaa",
